(module TSOP-6_1.65x3.05mm_P0.95mm_HandSoldering (layer F.Cu) (tedit 5C4440A1)
  (attr smd)
  (fp_text reference REF** (at 0 -2.45) (layer F.SilkS)
    (effects (font (size 1 1) (thickness 0.15)))
  )
  (fp_text value TSOP-6_1.65x3.05mm_P0.95mm_HandSoldering (at 0 2.5) (layer F.Fab)
    (effects (font (size 1 1) (thickness 0.15)))
  )
  (fp_text user %R (at 0 0 90) (layer F.Fab)
    (effects (font (size 0.5 0.5) (thickness 0.075)))
  )
  (fp_line (start -0.8 1.6) (end 0.8 1.6) (layer F.SilkS) (width 0.12))
  (fp_line (start 0.8 -1.6) (end -1.89 -1.6) (layer F.SilkS) (width 0.12))
  (fp_line (start -0.825 -1.1) (end -0.425 -1.525) (layer F.Fab) (width 0.1))
  (fp_line (start 0.825 -1.525) (end -0.425 -1.525) (layer F.Fab) (width 0.1))
  (fp_line (start -0.825 -1.1) (end -0.825 1.525) (layer F.Fab) (width 0.1))
  (fp_line (start 0.825 1.525) (end -0.825 1.525) (layer F.Fab) (width 0.1))
  (fp_line (start 0.825 -1.525) (end 0.825 1.525) (layer F.Fab) (width 0.1))
  (fp_line (start -2.15 -1.78) (end 2.15 -1.78) (layer F.CrtYd) (width 0.05))
  (fp_line (start -2.15 -1.78) (end -2.15 1.77) (layer F.CrtYd) (width 0.05))
  (fp_line (start 2.15 1.77) (end 2.15 -1.78) (layer F.CrtYd) (width 0.05))
  (fp_line (start 2.15 1.77) (end -2.15 1.77) (layer F.CrtYd) (width 0.05))
  (pad 1 smd rect (at -1.355 -0.95) (size 1.09 0.51) (layers F.Cu F.Paste F.Mask))
  (pad 2 smd rect (at -1.355 0) (size 1.09 0.51) (layers F.Cu F.Paste F.Mask))
  (pad 3 smd rect (at -1.355 0.95) (size 1.09 0.51) (layers F.Cu F.Paste F.Mask))
  (pad 4 smd rect (at 1.355 0.95) (size 1.09 0.51) (layers F.Cu F.Paste F.Mask))
  (pad 5 smd rect (at 1.355 0) (size 1.09 0.51) (layers F.Cu F.Paste F.Mask))
  (pad 6 smd rect (at 1.355 -0.95) (size 1.09 0.51) (layers F.Cu F.Paste F.Mask))
  (model ${KIPRJMOD}/packages3d/TSOP-6.step
    (at (xyz 0 0 0))
    (scale (xyz 1 1 1))
    (rotate (xyz 0 0 0))
  )
)
